<?xml version="1.0" encoding="utf-8"?>
<!-- Generator: Adobe Illustrator 18.1.1, SVG Export Plug-In . SVG Version: 6.00 Build 0)  -->
<svg version="1.1" id="Capa_1" xmlns="http://www.w3.org/2000/svg" xmlns:xlink="http://www.w3.org/1999/xlink" x="0px" y="0px"
	 viewBox="0 0 20 19" enable-background="new 0 0 20 19" xml:space="preserve">
<g>
	<polyline fill="#E2795D" points="9,0 9,19 11,19 11,0 	"/>
	<polyline fill="#E2795D" points="20,8.5 0,8.5 0,10.5 20,10.5 	"/>
</g>
</svg>
