<?xml version="1.0" encoding="utf-8"?>
<!-- Generator: Adobe Illustrator 18.1.1, SVG Export Plug-In . SVG Version: 6.00 Build 0)  -->
<svg version="1.1" id="Capa_1" xmlns="http://www.w3.org/2000/svg" xmlns:xlink="http://www.w3.org/1999/xlink" x="0px" y="0px"
	 viewBox="0 0 32 19.5" enable-background="new 0 0 32 19.5" xml:space="preserve">
<path fill="#FF7200" d="M17.7,3.5l-1.6-2.9c-0.1-0.2-0.4-0.4-0.6-0.4c-0.2,0-0.5,0.1-0.6,0.4l-1.6,2.9c0.7-0.2,1.5-0.3,2.3-0.3
	C16.2,3.2,17,3.3,17.7,3.5z"/>
<path fill="#FF7200" d="M6.2,12.4c0-0.8,0.1-1.5,0.3-2.3l-2.9,1.6c-0.3,0.2-0.4,0.4-0.4,0.7L6.2,12.4C6.2,12.5,6.2,12.5,6.2,12.4z"
	/>
<path fill="#FF7200" d="M27.3,11.8l-2.9-1.6c0.2,0.7,0.3,1.5,0.3,2.3c0,0,0,0,0,0.1h3C27.7,12.2,27.6,12,27.3,11.8z"/>
<path fill="#FF7200" d="M23.4,7.7l0.9-3.2C24.4,4,24,3.6,23.6,3.6c-0.1,0-0.1,0-0.2,0l-3.2,0.9c0.7,0.4,1.3,0.9,1.8,1.4
	C22.5,6.4,23,7,23.4,7.7z"/>
<path fill="#FF7200" d="M7.3,7.1l0.1,0.5c0.1-0.2,0.3-0.4,0.4-0.6c0.3-0.4,0.6-0.8,1-1.2c0.5-0.5,1.1-1,1.8-1.4L7.5,3.6
	c-0.1,0-0.1,0-0.2,0C6.8,3.6,6.5,4,6.6,4.5L7.3,7.1z"/>
<path fill="#FF7200" d="M23.4,12.4c0-0.2,0-0.5,0-0.7c0-0.4-0.1-0.8-0.2-1.2c-0.1-0.3-0.2-0.6-0.3-0.8c-0.1-0.2-0.2-0.5-0.3-0.7
	c-0.1-0.3-0.3-0.5-0.4-0.8c-0.2-0.3-0.4-0.7-0.7-1c-0.3-0.4-0.6-0.7-1-1c-0.3-0.3-0.6-0.5-1-0.7c-0.2-0.2-0.5-0.3-0.8-0.4
	c-0.2-0.1-0.4-0.2-0.7-0.3c-0.3-0.1-0.6-0.2-0.8-0.3c-0.4-0.1-0.8-0.2-1.2-0.2c-0.2,0-0.5,0-0.7,0c-0.2,0-0.5,0-0.7,0
	c-0.4,0-0.8,0.1-1.2,0.2c-0.3,0.1-0.6,0.2-0.8,0.3C12.5,5,12.3,5.1,12,5.2c-0.1,0.1-0.3,0.1-0.4,0.2c-0.1,0.1-0.2,0.1-0.4,0.2
	c-0.3,0.2-0.7,0.4-1,0.7c-0.4,0.3-0.7,0.6-1,1c-0.3,0.3-0.5,0.6-0.7,1C8.6,8.4,8.5,8.5,8.5,8.6C8.4,8.7,8.3,8.9,8.2,9.1
	C8.1,9.3,8,9.5,7.9,9.7c-0.1,0.3-0.2,0.6-0.3,0.8c-0.1,0.4-0.2,0.8-0.2,1.2c0,0.2,0,0.5,0,0.7c0,0,0,0,0,0.1L23.4,12.4
	C23.4,12.5,23.4,12.5,23.4,12.4z"/>
<path fill="#FF7200" d="M30,14.1H3.7c-0.3,0-0.5-0.2-0.5-0.5v0c0-0.3,0.2-0.5,0.5-0.5H30c0.3,0,0.5,0.2,0.5,0.5v0
	C30.5,13.9,30.3,14.1,30,14.1z"/>
<path fill="#FF7200" d="M31.5,19.3H5.1c-0.3,0-0.5-0.2-0.5-0.5l0,0c0-0.3,0.2-0.5,0.5-0.5h26.4c0.3,0,0.5,0.2,0.5,0.5l0,0
	C32,19.1,31.8,19.3,31.5,19.3z"/>
<path fill="#FF7200" d="M26.9,16.8H0.5c-0.3,0-0.5-0.2-0.5-0.5h0c0-0.3,0.2-0.5,0.5-0.5h26.4c0.3,0,0.5,0.2,0.5,0.5l0,0
	C27.3,16.6,27.1,16.8,26.9,16.8z"/>
</svg>
