<?xml version="1.0" encoding="utf-8"?>
<!-- Generator: Adobe Illustrator 18.1.1, SVG Export Plug-In . SVG Version: 6.00 Build 0)  -->
<svg version="1.1" id="Capa_1" xmlns="http://www.w3.org/2000/svg" xmlns:xlink="http://www.w3.org/1999/xlink" x="0px" y="0px"
	 viewBox="0 0 24 15" enable-background="new 0 0 24 15" xml:space="preserve">
<g>
	<path fill="#FFFFFF" d="M8,6.1c0,0,0,0.1,0,0.1c0,0.9,0,2.7,0,2.7s3.5,0,3.7,0c0,0.3-0.3,1.4-1.4,2.1c-0.6,0.4-1.3,0.6-2,0.6
		c-0.5,0-1,0-1.5-0.2C5.2,11,4.1,9.6,3.9,7.9c0-0.4,0-0.8,0.1-1.3c0.5-2,2.4-3.5,4.6-3.2c1,0.1,1.5,0.5,2,1c0.7-0.7,1.3-1.3,2-2
		c-0.2-0.1-0.6-0.5-1.2-0.9c-1-0.6-2.1-0.9-3.3-0.9c-0.2,0-0.4,0-0.7,0C7,0.6,6.7,0.6,6.3,0.7C4.8,1.1,3.5,1.9,2.6,3.1
		C1.6,4.3,1.1,5.6,1,7.1C1,7.7,1,8.4,1.2,9c0.4,1.7,1.3,3.1,2.7,4.2c1.1,0.8,2.4,1.2,3.7,1.3c0.8,0,1.5,0,2.3-0.2
		c1.4-0.4,2.6-1.1,3.4-2.3c1.3-1.7,1.6-3.8,1.2-5.9C12.3,6.1,10.1,6.1,8,6.1z"/>
	<polygon fill="#FFFFFF" points="22.9,6.2 20.6,6.2 20.6,3.8 20.6,3.8 20.5,3.8 18.7,3.8 18.7,3.8 18.7,3.8 18.7,6.2 16.3,6.2 
		16.2,6.2 16.2,6.3 16.2,8 16.2,8.1 16.3,8.1 18.7,8.1 18.7,10.5 18.7,10.5 18.7,10.5 20.5,10.5 20.6,10.5 20.6,10.5 20.6,8.1 
		22.9,8.1 23,8.1 23,8 23,6.3 23,6.2 	"/>
</g>
</svg>
