<?xml version="1.0" encoding="utf-8"?>
<!-- Generator: Adobe Illustrator 18.1.1, SVG Export Plug-In . SVG Version: 6.00 Build 0)  -->
<svg version="1.1" id="Capa_1" xmlns="http://www.w3.org/2000/svg" xmlns:xlink="http://www.w3.org/1999/xlink" x="0px" y="0px"
	 viewBox="0 0 27 27" enable-background="new 0 0 27 27" xml:space="preserve">
<rect x="1.1" y="9.3" fill="#0084B1" width="5.3" height="17.4"/>
<circle fill="#0084B1" cx="3.8" cy="3.7" r="3.1"/>
<path fill="#0084B1" d="M20.3,8.8c-2.6,0-4.4,1.4-5.1,2.9h-0.1V9.3H9.9v17.4h5.3v-8.5c0-2.2,0.4-4.4,3.2-4.4c2.7,0,2.9,2.6,2.9,4.6
	v8.4h5.3v-9.5C26.7,12.5,25.8,8.8,20.3,8.8z"/>
</svg>
